Name,Lat,Sex,PUM,SPU,DCOX,IIMT,ISMM,SCOX,SS,SA,SIS,VEAC
13_ 1,L,M,71.2,30.2,221,47,117.8,163,79.2,85.8,42.3,61.3
13_ 2,R,M,68.5,31.3,221,38,116.6,154,75.2,72.2,45.2,56.3
13_ 3,L,M,69.5,31.7,221,38,114.6,155,73.3,71.7,44,56.9
13_ 4,L,M,64.3,28.8,205,42,111,153,71,75,39.2,56.8
13_ 5,R,M,66.2,30,205,37,110.3,152,70.2,74,41.8,57
13_ 6,L,M,77.8,30.7,241,47,121.8,172,85.5,78.7,46.3,63
13_ 7,R,M,80.5,33.2,232,38,117.6,172,83.3,79.9,43.1,62
13_ 8,L,M,69.6,26.3,221,NA,111.1,159,NA,77,NA,55.7
13_ 9,R,M,66.3,24.9,220,38,113.3,158,72.5,75,44.2,55.5
13_ 10,L,M,70.7,32.7,218,45,113.3,157,66.3,66.1,42.5,57.2
13_ 11,R,M,66.3,NA,218,NA,NA,158,NA,NA,NA,NA
13_ 12,L,F,67.3,24.8,186,55,93.7,153,65.6,78.3,36,47.8
13_ 13,R,F,68.9,26.3,189,50,95.3,153,66,76.4,33.3,47.7
13_ 14,L,M,62.8,28.5,213,45,106.8,160,77.3,77.1,41.1,54.2
13_ 15,R,M,63.5,30,217,45,109.5,156,75.2,76.4,41.2,54
13_ 16,L,M,66.2,25.9,196,43,102.6,140,63.9,67.6,33.5,53
13_ 17,R,M,67.2,26,198,39,104.5,141,65.7,68,33.8,53.3
13_ 18,L,M,77.3,33,232,53,118.4,166,83,92.8,40.2,59.3
13_ 19,R,M,75.3,32.4,233,51,121.3,169,82.4,86.4,40.4,59.4
13_ 20,L,F,73.4,29.3,210,51,101.4,166,74.1,83.6,39.9,48.9
13_ 21,R,F,73.3,28.7,210,49,103.8,166,70.8,88.5,42.1,50.3
13_ 22,L,M,62.5,27.4,202,30,102.5,149,69.8,65.8,40,56.3
13_ 23,R,M,61.1,27.5,202,29,104.5,149,69,69.5,41.5,54.4
13_ 24,L,F,76,24.7,207,45,104.6,158,72.5,72.5,36.3,51.4
13_ 25,R,F,72.8,24.1,207,49,101,160,71.8,76.5,36.4,50.3
13_ 26,L,F,75.6,25.3,209,50,102.6,162,75.6,83.7,36,52.3
13_ 27,R,F,74.3,26.5,209,47,105,163,76.5,85.4,37.2,53.3
13_ 28,L,F,73.5,26.2,214,66,103.8,158,71,96.3,NA,51.8
13_ 29,R,F,74.5,25.3,214,55,109.4,164,73,85.8,NA,52.7
13_ 30,L,M,79.5,31,237,48,119,173,79.5,79.5,46.2,60.2
13_ 31,R,M,77.8,29.3,233,44,119.3,175,79.4,84.2,42.4,62.1
13_ 32,L,M,65.1,26.8,208,38,108,147,66.5,66.3,37.2,56.5
13_ 33,R,M,67.3,26.6,208,38,106.7,151,65.8,70.8,40.9,54.7
13_ 34,L,F,79.8,26.4,202,49,104.8,161,73.7,81.5,34.6,53.3
13_ 35,R,F,68.5,22.8,205,46,106.6,159,72.5,80.2,38,53.3
13_ 36,L,M,71,34.3,207,40,111.4,161,84.3,78,46.5,55.6
13_ 37,R,M,72.9,35.1,211,38,111.1,161,81.8,78,46.5,58.1
13_ 38,L,M,75.3,31.8,232,44.5,118.5,163,76.3,76.3,39.3,58.1
13_ 39,R,M,75.9,31,227,42,120.5,168,78.5,84.3,39.5,57.4
13_ 40,L,M,67.5,28.6,215,45,109.3,152,68,74.4,35.6,52.2
13_ 41,R,M,67.3,28.2,216,42,108,154,69.7,75.4,37.9,52.5
13_ 42,L,F,73.8,23,196,60,100.2,142,72.7,80.4,41.1,48.5
13_ 43,R,F,70,24.5,203,60,103.1,142,70.3,77,38.4,51
13_ 44,L,M,78.8,30.3,240,48,126.2,173,85.8,87.5,43,62.3
13_ 45,R,M,77.2,30.8,241,47,129,175,86,90.5,43.3,63
13_ 46,L,M,71.2,30,231,45,120.3,166,84.5,74.8,45.5,59.4
13_ 47,R,M,72.4,30.6,231,44,123,165,82.7,78,44,62.2
13_ 48,L,M,74.2,29.6,222,43,115.3,168,79.6,79.6,40,59.5
13_ 49,R,M,74.1,32.5,221,41,115,167,79.3,81.3,40.8,59
13_ 50,L,F,70.3,25.5,183,50,96.8,156,67.4,78.9,36.6,48.8
13_ 51,R,F,72.9,NA,186,47.5,93.8,152,67.3,79.7,39.9,47.8
13_ 52,L,M,80.4,25.4,238,49,122.8,167,85,83.5,45.2,62
13_ 53,R,M,81,29.2,239,47,123,175,82.5,89.3,43.1,61.3
13_ 54,L,M,65.2,27.1,212,42,110.8,152,73.7,85.5,38.5,55
13_ 55,R,M,69.2,30.4,213,44,111.1,153,72.2,89.3,37.8,55.7
13_ 56,L,M,72.5,36.3,238,38,121,165,83.3,75.4,46.4,58.4
13_ 57,R,M,76.1,36.1,240,31,121.3,170,87.3,81.3,47.3,60.5
13_ 58,L,M,79.3,33,227,37.5,115.9,164,75.4,75.4,41.5,55.5
13_ 59,R,M,79.8,32.1,227,32.5,115,170,78,78,39,57.1
13_ 60,R,M,67.5,27.7,205,41,108.8,145,72.8,84.5,39.5,57
13_ 61,L,M,NA,27.8,203,40,103.2,NA,71.5,78,38.8,54.4
13_ 62,L,M,75.1,30,210,38.5,112.8,156,78.5,79.1,41.1,58
13_ 63,R,M,73.7,30,211,36.5,113.5,156,80.5,80.6,40.5,56.4
13_ 64,L,M,79.2,33.1,237,40.5,127,169,88.5,83.2,46.7,62.8
13_ 65,R,M,76.8,31.3,240,42,127.9,170,88,84.5,45.5,65.9
13_ 66,L,F,70.2,26.5,191,43,98,162,64.3,73,36.2,52.4
13_ 67,R,F,68.1,26.3,192,44.5,98.8,161,66.5,76.3,37.7,50.4
13_ 68,L,M,68,27.9,204,47,102.6,147,77.2,87.8,39,51.3
13_ 69,R,M,67.3,29.1,195,46,103.3,148,72.5,85,38.2,52.3
13_ 70,L,F,69.6,26.5,190,45,97.7,146,67.5,74,37.2,52.1
13_ 71,R,F,69,26.1,193,39,97.8,NA,63.7,69.6,37.4,53.1
13_ 72,L,M,73.8,30.6,220,50,116.6,166,81.3,87.8,39.5,59.1
13_ 73,R,M,75.5,32.1,216,52,116.8,167,81.1,91.5,41.8,60
13_ 74,L,M,77.6,32.2,216,38,113.5,158,78,75.6,40.2,59.2
13_ 75,R,M,75.6,34.8,210,37,112.6,159,77,78.8,39.9,59.2
13_ 76,L,M,70,25.2,227,40,115.3,159,73,78.1,34.7,57
13_ 77,R,M,73.5,27.8,226,40,116.5,158,74.7,78.5,34.2,58.8
13_ 78,L,M,70,26.5,217,41,111.7,157,77.3,88.5,41,54.5
13_ 79,R,M,71.5,25.5,221,40,118.5,152,73.7,81.2,40,56.4
13_ 80,L,M,77.7,34.5,242,49,127,167,80.3,87.4,45.5,60.2
13_ 81,R,M,71,35.2,238,50,122.5,167,79.7,82.8,45,62
13_ 82,L,F,69.8,25,185,51,95,145,70,77.5,37,48.8
13_ 83,R,F,68.8,23.6,187,43,95.5,144,68.9,76.5,38.2,48.8
13_ 84,L,F,65.9,25.6,172,41,84.4,125,69.2,64.5,31.1,45.5
13_ 85,R,F,62,22,169,42,81.5,126,59,66.1,29.1,45.1
13_ 86,L,F,76.2,26.1,200,42,101,153,69,69.6,36.3,50.3
13_ 87,R,F,77.1,25.5,200,39,102.5,153,69.2,71.2,35.3,50.5
13_ 88,L,F,75.7,25.2,199,46,97.8,154,89,92.8,35.3,46.5
13_ 89,R,F,72.3,25,198,47,95.5,153,71.3,64.3,36.4,47.3
13_ 90,L,F,64,22.2,187,43,95,149,64.4,73.3,38.2,49
13_ 91,R,F,NA,21.8,188,41.5,98.5,149,65.2,71.4,35.2,49.2
13_ 92,L,F,81.2,25.3,199,53,104.7,164,69,75.2,35.5,53.2
13_ 93,R,F,79.3,25.2,199,54,104.1,168,69.8,59.8,35.1,54.3
13_ 94,L,F,NA,24.7,194,58,90.3,149,64.8,79.3,35.3,45
13_ 95,R,F,NA,24.3,196,47,94.8,147,63.2,72.5,35,48.8
13_ 96,R,F,77.9,25.6,210,46,105.5,152,74.8,79.5,40.5,55.3
13_ 97,L,F,72.5,24.3,192,47,95.5,149,65,66.3,33.8,47.8
13_ 98,R,F,74.3,21.8,192,42,97,150,66.1,70.2,33.9,50.1
13_ 99,L,F,59.4,29.8,203,46,101.8,148,76.7,78.9,38.3,49.1
13_ 100,R,F,69.5,26.3,199,46,102.8,149,77.1,74.4,32.5,49.4
13_ 101,L,F,70.2,22.7,188,40,99.5,149,70,76.5,37,50.7
13_ 102,R,F,70.5,25.9,190,40,99.7,149,68.9,79.8,39.2,50.1
13_ 103,L,F,65.9,26.8,199,49,102.8,155,71.9,83.1,38.1,50.5
13_ 104,R,F,68.8,25.7,195,52,100.7,159,67.2,79.1,37.5,50.2
13_ 105,L,F,69.6,26.3,200,56,101.7,153,75.4,84,43.7,49
13_ 106,R,F,71.8,26.4,200,57,101.3,155,74,92.8,40.2,51.3
13_ 107,L,F,NA,26.1,216,53,109.1,160,75.7,89.5,40.8,53.5
13_ 108,R,F,78,30.1,217,54,108.2,158,75.1,90.5,42.3,54.6
13_ 109,L,F,71.4,24.8,199,47,100.4,144,68.5,80,36.3,50.3
13_ 110,R,F,75.3,26.5,196,47,101.4,143,67.8,81,36.1,56.3
13_ 111,L,F,NA,24.4,209,49,101,157,71.5,78.1,40.3,54.4
13_ 112,R,F,NA,24.3,210,49,102.5,160,70.3,79.3,39.1,57.4
13_ 113,L,F,80,26.1,212,57,107.7,169,73.7,96.2,39.5,53.2
13_ 114,R,F,80,27.3,216,54,106.5,169,74.6,95.2,39.5,53.6
13_ 115,L,F,75,22.2,214,54,103.5,163,76.3,84.3,35.8,51.3
13_ 116,R,F,74.2,21.7,212,49,102.5,157,73.8,78.6,36.8,53.3
13_ 117,L,F,69.5,22.2,196,49,98,148,65.7,70.8,32.8,50.2
13_ 118,R,F,70.9,22.3,196,52,97.1,154,65,74.9,32.6,48.8
13_ 119,L,F,81.2,24.3,197,53,98,156,69.9,80.4,36.4,49.1
13_ 120,R,F,80.1,24.5,196,56,94.7,155,71.8,84.5,35.9,50
